-- Merging decision tree log ---
manifest
ADDED from /home/user/Desktop/EShakti_Offline/eshakti_offline/rippleView/src/main/AndroidManifest.xml:1:1-17:12
INJECTED from /home/user/Desktop/EShakti_Offline/eshakti_offline/rippleView/src/main/AndroidManifest.xml:1:1-17:12
INJECTED from /home/user/Desktop/EShakti_Offline/eshakti_offline/rippleView/src/main/AndroidManifest.xml:1:1-17:12
INJECTED from /home/user/Desktop/EShakti_Offline/eshakti_offline/rippleView/src/main/AndroidManifest.xml:1:1-17:12
INJECTED from /home/user/Desktop/EShakti_Offline/eshakti_offline/rippleView/src/main/AndroidManifest.xml:1:1-17:12
INJECTED from /home/user/Desktop/EShakti_Offline/eshakti_offline/rippleView/src/main/AndroidManifest.xml:1:1-17:12
INJECTED from /home/user/Desktop/EShakti_Offline/eshakti_offline/rippleView/src/main/AndroidManifest.xml:1:1-17:12
	package
		ADDED from /home/user/Desktop/EShakti_Offline/eshakti_offline/rippleView/src/main/AndroidManifest.xml:2:5-25
		INJECTED from /home/user/Desktop/EShakti_Offline/eshakti_offline/rippleView/src/main/AndroidManifest.xml
		INJECTED from /home/user/Desktop/EShakti_Offline/eshakti_offline/rippleView/src/main/AndroidManifest.xml
	android:versionName
		ADDED from /home/user/Desktop/EShakti_Offline/eshakti_offline/rippleView/src/main/AndroidManifest.xml:4:5-30
		INJECTED from /home/user/Desktop/EShakti_Offline/eshakti_offline/rippleView/src/main/AndroidManifest.xml
		INJECTED from /home/user/Desktop/EShakti_Offline/eshakti_offline/rippleView/src/main/AndroidManifest.xml
	xmlns:android
		ADDED from /home/user/Desktop/EShakti_Offline/eshakti_offline/rippleView/src/main/AndroidManifest.xml:1:11-69
	android:versionCode
		ADDED from /home/user/Desktop/EShakti_Offline/eshakti_offline/rippleView/src/main/AndroidManifest.xml:3:5-28
		INJECTED from /home/user/Desktop/EShakti_Offline/eshakti_offline/rippleView/src/main/AndroidManifest.xml
		INJECTED from /home/user/Desktop/EShakti_Offline/eshakti_offline/rippleView/src/main/AndroidManifest.xml
application
ADDED from /home/user/Desktop/EShakti_Offline/eshakti_offline/rippleView/src/main/AndroidManifest.xml:10:5-15:19
	android:label
		ADDED from /home/user/Desktop/EShakti_Offline/eshakti_offline/rippleView/src/main/AndroidManifest.xml:13:9-41
	android:icon
		ADDED from /home/user/Desktop/EShakti_Offline/eshakti_offline/rippleView/src/main/AndroidManifest.xml:12:9-45
	android:allowBackup
		ADDED from /home/user/Desktop/EShakti_Offline/eshakti_offline/rippleView/src/main/AndroidManifest.xml:11:9-35
	android:theme
		ADDED from /home/user/Desktop/EShakti_Offline/eshakti_offline/rippleView/src/main/AndroidManifest.xml:14:9-40
uses-sdk
INJECTED from /home/user/Desktop/EShakti_Offline/eshakti_offline/rippleView/src/main/AndroidManifest.xml reason: use-sdk injection requested
INJECTED from /home/user/Desktop/EShakti_Offline/eshakti_offline/rippleView/src/main/AndroidManifest.xml
INJECTED from /home/user/Desktop/EShakti_Offline/eshakti_offline/rippleView/src/main/AndroidManifest.xml
INJECTED from /home/user/Desktop/EShakti_Offline/eshakti_offline/rippleView/src/main/AndroidManifest.xml
INJECTED from /home/user/Desktop/EShakti_Offline/eshakti_offline/rippleView/src/main/AndroidManifest.xml
	android:targetSdkVersion
		INJECTED from /home/user/Desktop/EShakti_Offline/eshakti_offline/rippleView/src/main/AndroidManifest.xml
		ADDED from /home/user/Desktop/EShakti_Offline/eshakti_offline/rippleView/src/main/AndroidManifest.xml
		INJECTED from /home/user/Desktop/EShakti_Offline/eshakti_offline/rippleView/src/main/AndroidManifest.xml
	android:minSdkVersion
		INJECTED from /home/user/Desktop/EShakti_Offline/eshakti_offline/rippleView/src/main/AndroidManifest.xml
		ADDED from /home/user/Desktop/EShakti_Offline/eshakti_offline/rippleView/src/main/AndroidManifest.xml
		INJECTED from /home/user/Desktop/EShakti_Offline/eshakti_offline/rippleView/src/main/AndroidManifest.xml
