{
  "project_info": {
    "project_number": "663303964931",
    "project_id": "esakthi-70e9f",
    "storage_bucket": "esakthi-70e9f.appspot.com"
  },
  "client": [
    {
      "client_info": {
        "mobilesdk_app_id": "1:663303964931:android:5bb4394faa311485c50136",
        "android_client_info": {
          "package_name": "com.oasys.eshakti"
        }
      },
      "oauth_client": [
        {
          "client_id": "663303964931-kdsrn9g41q5lpih4oj8c5lftt7tis6q2.apps.googleusercontent.com",
          "client_type": 3
        }
      ],
      "api_key": [
        {
          "current_key": "AIzaSyCtRJ3aBudrNfWkVwAJhtDBTB_Pq1REddY"
        }
      ],
      "services": {
        "appinvite_service": {
          "other_platform_oauth_client": [
            {
              "client_id": "663303964931-kdsrn9g41q5lpih4oj8c5lftt7tis6q2.apps.googleusercontent.com",
              "client_type": 3
            }
          ]
        }
      }
    }
  ],
  "configuration_version": "1"
}