-- Merging decision tree log ---
manifest
ADDED from /home/user/Desktop/EShakti_Offline/eshakti_offline/main_expandable_listview_lib/src/main/AndroidManifest.xml:1:1-6:12
INJECTED from /home/user/Desktop/EShakti_Offline/eshakti_offline/main_expandable_listview_lib/src/main/AndroidManifest.xml:1:1-6:12
INJECTED from /home/user/Desktop/EShakti_Offline/eshakti_offline/main_expandable_listview_lib/src/main/AndroidManifest.xml:1:1-6:12
	package
		ADDED from /home/user/Desktop/EShakti_Offline/eshakti_offline/main_expandable_listview_lib/src/main/AndroidManifest.xml:2:5-52
		INJECTED from /home/user/Desktop/EShakti_Offline/eshakti_offline/main_expandable_listview_lib/src/main/AndroidManifest.xml
		INJECTED from /home/user/Desktop/EShakti_Offline/eshakti_offline/main_expandable_listview_lib/src/main/AndroidManifest.xml
	xmlns:android
		ADDED from /home/user/Desktop/EShakti_Offline/eshakti_offline/main_expandable_listview_lib/src/main/AndroidManifest.xml:1:11-69
application
ADDED from /home/user/Desktop/EShakti_Offline/eshakti_offline/main_expandable_listview_lib/src/main/AndroidManifest.xml:4:5-20
uses-sdk
INJECTED from /home/user/Desktop/EShakti_Offline/eshakti_offline/main_expandable_listview_lib/src/main/AndroidManifest.xml reason: use-sdk injection requested
INJECTED from /home/user/Desktop/EShakti_Offline/eshakti_offline/main_expandable_listview_lib/src/main/AndroidManifest.xml
INJECTED from /home/user/Desktop/EShakti_Offline/eshakti_offline/main_expandable_listview_lib/src/main/AndroidManifest.xml
	android:minSdkVersion
		INJECTED from /home/user/Desktop/EShakti_Offline/eshakti_offline/main_expandable_listview_lib/src/main/AndroidManifest.xml
		ADDED from /home/user/Desktop/EShakti_Offline/eshakti_offline/main_expandable_listview_lib/src/main/AndroidManifest.xml
		INJECTED from /home/user/Desktop/EShakti_Offline/eshakti_offline/main_expandable_listview_lib/src/main/AndroidManifest.xml
