-- Merging decision tree log ---
manifest
ADDED from /home/user/Desktop/EShakti_Offline/eshakti_offline/tastyToastLib/src/main/AndroidManifest.xml:1:1-11:12
INJECTED from /home/user/Desktop/EShakti_Offline/eshakti_offline/tastyToastLib/src/main/AndroidManifest.xml:1:1-11:12
INJECTED from /home/user/Desktop/EShakti_Offline/eshakti_offline/tastyToastLib/src/main/AndroidManifest.xml:1:1-11:12
	package
		ADDED from /home/user/Desktop/EShakti_Offline/eshakti_offline/tastyToastLib/src/main/AndroidManifest.xml:2:5-36
		INJECTED from /home/user/Desktop/EShakti_Offline/eshakti_offline/tastyToastLib/src/main/AndroidManifest.xml
		INJECTED from /home/user/Desktop/EShakti_Offline/eshakti_offline/tastyToastLib/src/main/AndroidManifest.xml
	xmlns:android
		ADDED from /home/user/Desktop/EShakti_Offline/eshakti_offline/tastyToastLib/src/main/AndroidManifest.xml:1:11-69
application
ADDED from /home/user/Desktop/EShakti_Offline/eshakti_offline/tastyToastLib/src/main/AndroidManifest.xml:4:5-9:19
	android:supportsRtl
		ADDED from /home/user/Desktop/EShakti_Offline/eshakti_offline/tastyToastLib/src/main/AndroidManifest.xml:7:9-35
	android:label
		ADDED from /home/user/Desktop/EShakti_Offline/eshakti_offline/tastyToastLib/src/main/AndroidManifest.xml:6:9-41
	android:allowBackup
		ADDED from /home/user/Desktop/EShakti_Offline/eshakti_offline/tastyToastLib/src/main/AndroidManifest.xml:5:9-35
uses-sdk
INJECTED from /home/user/Desktop/EShakti_Offline/eshakti_offline/tastyToastLib/src/main/AndroidManifest.xml reason: use-sdk injection requested
INJECTED from /home/user/Desktop/EShakti_Offline/eshakti_offline/tastyToastLib/src/main/AndroidManifest.xml
INJECTED from /home/user/Desktop/EShakti_Offline/eshakti_offline/tastyToastLib/src/main/AndroidManifest.xml
	android:minSdkVersion
		INJECTED from /home/user/Desktop/EShakti_Offline/eshakti_offline/tastyToastLib/src/main/AndroidManifest.xml
		ADDED from /home/user/Desktop/EShakti_Offline/eshakti_offline/tastyToastLib/src/main/AndroidManifest.xml
		INJECTED from /home/user/Desktop/EShakti_Offline/eshakti_offline/tastyToastLib/src/main/AndroidManifest.xml
